{
  "configuration": {
    "packages": "com.hudz",
    "name": "Log4j2_Config",
    "properties": {
      "property": [
        {
          "name": "log-path",
          "value": "logs"
        },
        {
          "name": "archive",
          "value": "${log-path}/archive"
        }
      ]
    },
    "appenders": {
      "Console": {
        "name": "Console-Appender",
        "target": "SYSTEM_OUT",
        "PatternLayout": {
          "pattern": "%msg%n"
        }
      },
      "File": {
        "name": "File-Appender",
        "fileName": "${log-path}/logfile.log",
        "PatternLayout": {
          "pattern": "[%-5level] %d{yyyy-MM-dd HH:mm:ss.SSS} [%t] %c{1} - %msg%n"
        }
      },
      "RollingFile": {
        "name": "RollingFile-Appender",
        "fileName": "${log-path}/rollingfile.log",
        "filePattern": "${archive}/rollingfile.log.%d{yyyy-MM-dd-hh-mm}.gz",
        "PatternLayout": {
          "pattern": "[%-5level] %d{yyyy-MM-dd HH:mm:ss.SSS} [%t] %c{1} - %msg%n"
        },
        "Policies": {
          "SizeBasedTriggeringPolicy": {
            "size": "1 MB"
          },
          "CronTriggeringPolicy": {
            "schedule": "0 28 1 ? * *",
            "evaluateOnStartup": true
          }
        },
        "DefaultRolloverStrategy": {
          "max": "30"
        }
      }
    },
    "loggers": {
      "logger": {
        "name": "com.hudz",
        "level": "all",
        "appender-ref": [{
          "ref": "Console-Appender", "level":"info"
          }
        ]
      },
      "root": {
        "level": "all",
        "appender-ref": {"ref": "Console-Appender"}
      }
    }
  }
}